vhdl/Tests-S3E/soc_leon3/Software/Scope/scope.vcd
$date
  Sat Nov 25 01:36:12 2006
$end
$version
  spikela
$end
$timescale
$  1 ns
$end
$var reg 1 A p0 $end
$var reg 1 B p1 $end
$var reg 1 C p2 $end
$var reg 1 D p3 $end
$enddefinitions $end
#0
0A
0B
0C
0D
#0
1A
1B
1D
#160
0B
#180
1B
#200
0A
0B
#240
1A
#260
0A
#320
1A
1B
#480
0B
#500
1B
#520
0A
0B
#560
1A
1C
#580
0A
#600
1A
1B
0C
#720
0D
#760
0B
#780
1B
#800
0A
0B
#840
1A
1B
1C
#860
0A
0B
#880
1A
1B
#1000
0C
#1240
0A
0B
#1260
1A
#1280
1B
#1300
0A
0B
#1320
1A
1B
#1480
0A
0B
#1500
1A
#1520
1B
#1540
0A
0B
#1560
1A
1B
#1720
0A
0B
#1740
1A
#1780
0A
#1840
1A
1B
#2000
0B
#2020
1B
#2040
0A
0B
#2120
1A
1B
#2280
0B
#2300
1B
#2520
0A
0B
#2540
1A
#2560
0A
#2600
1A
#2620
0A
#2640
1A
1B
#2800
0B
#2820
1B
#2840
0A
0B
#2940
1A
#2960
1B
#2980
0A
0B
#3000
1A
1B
#3160
0A
0B
#3180
1A
#3220
0A
#3280
1A
1B
#3440
0B
#3460
1B
#3480
0A
0B
#3540
1A
#3560
1B
#3580
0A
0B
#3600
1A
1B
#3760
0A
0B
#3780
1A
#3800
0A
#9240
1D
#9260
0D
#9280
1D
#18040
0D
#18060
1D
#18080
0D
#26600
1D
#35400
0D
#43920
1D
#52720
0D
#61240
1D
#61260
0D
#61280
1D
#66200
1A
1B
#66220
0A
0B
#66240
1A
1B
#66640
0B
#66660
1B
#66680
0A
0B
#66740
1A
#66760
1B
#66780
0A
0B
#66800
1A
1B
#66960
0A
0B
#66980
1A
#67000
0A
#67040
1A
1B
#67060
0A
0B
#67080
1A
1B
#67240
0A
0B
#67260
1A
#67300
0A
#67360
1A
1B
#67380
0A
0B
#67400
1A
1B
#67560
0A
0B
#67580
1A
#67620
0A
#67680
1A
1B
#67840
0B
#67860
1B
#67880
0A
0B
#67940
1A
#67960
1B
#67980
0A
0B
#68000
1A
1B
#68160
0A
0B
#68180
1A
#68220
0A
#68280
1A
1B
#68440
0B
#68460
1B
#68480
0A
0B
#68540
1A
#68560
0A
#68600
1A
1B
#68620
0A
0B
#68640
1A
1B
#68800
0A
0B
#68820
1A
#68860
0A
#68920
1A
1B
#69080
0B
#69100
1B
#69120
0A
0B
#69180
1A
#69200
0A
#69240
1A
1B
#69260
0A
0B
#69280
1A
1B
#69440
0A
0B
#69460
1A
#69480
1B
#69500
0A
0B
#69520
1A
1B
#69680
0A
0B
#69700
1A
#69720
1B
#69740
0A
0B
#69760
1A
1B
#69920
0A
0B
#69940
1A
#69980
0A
#70040
1A
1B
0D
#70060
1D
#70080
0D
#70200
0B
#70220
1B
#70240
0A
0B
#70280
1A
1B
#70440
0B
#70460
1B
#70480
0A
0B
#70520
1A
#70540
0A
#70560
1A
1B
#70720
0B
#70740
1B
#70760
0A
0B
#70800
1A
1B
#70960
0B
#70980
1B
#71000
0A
0B
#71100
1A
#71120
1B
#71140
0A
0B
#71160
1A
1B
#71320
0A
0B
#71340
1A
#71380
0A
#71440
1A
1B
#71600
0B
#71620
1B
#71640
0A
0B
#71680
1A
1B
#71700
0A
0B
#71720
1A
1B
#71880
0A
0B
#71900
1A
#71920
1B
#71940
0A
0B
#71960
1A
1B
#72140
0B
#72160
1B
#72320
0B
#72340
1B
#72360
0A
0B
#72440
1A
1B
#72460
0B
#72480
1B
#72640
0A
0B
#72660
1A
#72700
0A
#72760
1A
1B
1C
#72780
0A
0B
#72800
1A
1B
#72920
0C
#73180
0B
#73200
1B
#73360
0B
#73380
1B
#73400
0A
0B
#73440
1A
1B
#73460
0A
0B
#73480
1A
1B
#73640
0A
0B
#73660
1A
#73680
1B
#73700
0A
0B
#73720
1A
1B
#73880
0A
0B
#73900
1A
#73920
0A
1C
#73940
0C
#73960
1A
1B
1C
#74360
0B
0C
#74380
1B
1C
#74400
0A
0B
0C
#74440
1A
1B
#74600
0B
#74620
1B
#74640
0A
0B
#74680
1A
1B
#74840
0B
#74860
1B
#75080
0A
0B
#75100
1A
#75120
0A
#75160
1A
1B
#75180
0A
0B
#75200
1A
1B
#75360
0A
0B
#75380
1A
#75400
1B
#75420
0A
0B
#75440
1A
1B
#75600
0A
0B
#75620
1A
#75640
1B
#75660
0A
0B
#75680
1A
1B
#75840
0A
0B
#75860
1A
#75900
0A
#76000
1A
1B
#76160
0B
#76180
1B
#76200
0A
0B
#76260
1A
#76280
0A
#76320
1A
1B
#76340
0A
0B
#76360
1A
1B
#76520
0A
0B
#76540
1A
#76560
1B
#76580
0A
0B
#76600
1A
1B
#76760
0A
0B
#76780
1A
#76820
0A
#76920
1A
1B
#77080
0B
#77100
1B
#77320
0A
0B
#77340
1A
#77360
0A
#77400
1A
#77420
0A
#77460
1A
#77480
0A
#77520
1A
1B
#77540
0A
0B
#77560
1A
1B
#77720
0A
0B
#77740
1A
#77760
1B
#77780
0A
0B
#77800
1A
1B
#77960
0A
0B
#77980
1A
#78020
0A
#78080
1A
1B
#78240
0B
#78260
1B
#78280
0A
0B
#78340
1A
#78360
1B
#78380
0A
0B
#78400
1A
1B
#78560
0A
0B
#78580
1A
#78600
0A
1D
#87360
0D
#87380
1D
#87400
0D
#95920
1D
#104720
0D
#121920
1D
#130720
0D
#147920
1D
#152880
1A
1B
#153040
0B
#153060
1B
#153080
0A
0B
#153140
1A
#153160
1B
#153180
0A
0B
#153200
1A
1B
#153360
0A
0B
#153380
1A
#153400
0A
#153440
1A
1B
#153460
0A
0B
#153480
1A
1B
#153640
0A
0B
#153660
1A
#153700
0A
#153760
1A
1B
#153780
0A
0B
#153800
1A
1B
#153960
0A
0B
#153980
1A
#154020
0A
#154080
1A
1B
#154240
0B
#154260
1B
#154280
0A
0B
#154340
1A
#154360
1B
#154380
0A
0B
#154400
1A
1B
#154560
0A
0B
#154580
1A
#154620
0A
#154680
1A
1B
#154840
0B
#154860
1B
#154880
0A
0B
#154940
1A
#154960
0A
#155000
1A
1B
#155020
0A
0B
#155040
1A
1B
#155200
0A
0B
#155220
1A
#155260
0A
#155320
1A
1B
#155480
0B
#155500
1B
#155520
0A
0B
#155580
1A
#155600
0A
#155640
1A
1B
#155660
0A
0B
#155680
1A
1B
#155840
0A
0B
#155860
1A
#155880
1B
#155900
0A
0B
#155920
1A
1B
#156080
0A
0B
#156100
1A
#156120
1B
#156140
0A
0B
#156160
1A
1B
#156320
0A
0B
#156340
1A
#156380
0A
#156440
1A
1B
#156600
0B
#156620
1B
#156640
0A
0B
#156680
1A
1B
#156720
0D
#156740
1D
#156760
0D
#156840
0B
#156860
1B
#156880
0A
0B
#156920
1A
#156940
0A
#156960
1A
1B
#157120
0B
#157140
1B
#157160
0A
0B
#157200
1A
1B
#157360
0B
#157380
1B
#157400
0A
0B
#157500
1A
#157520
1B
#157540
0A
0B
#157560
1A
1B
#157720
0A
0B
#157740
1A
#157780
0A
#157840
1A
1B
#158000
0B
#158020
1B
#158040
0A
0B
#158080
1A
1B
#158100
0A
0B
#158120
1A
1B
#158280
0A
0B
#158300
1A
#158320
1B
#158340
0A
0B
#158360
1A
1B
#158800
0B
#158820
1B
#159040
0A
0B
#159060
1A
#159080
0A
#159120
1A
#159140
0A
#159160
1A
1B
#159320
0B
#159340
1B
#159360
0A
0B
#159420
1A
#159440
0A
1C
#159460
0C
#159480
1A
1B
1C
#159600
0C
#159620
1C
#159640
0C
#159840
0B
#159860
1B
#160080
0A
0B
#160100
1A
#160120
0A
#160160
1A
1B
#160320
0B
#160340
1B
#160360
0A
0B
#160400
1A
1B
#160560
0B
#160580
1B
#160600
0A
0B
#160640
1A
1B
1C
#160660
0A
0B
#160680
1A
1B
#160800
0A
0B
0C
#160820
1A
#160840
1B
#160860
0A
0B
#160880
1A
1B
#161040
0A
0B
#161060
1A
#161080
1B
#161100
0A
0B
#161120
1A
1B
#161300
0B
#161320
1B
#161480
0B
#161500
1B
#161520
0A
0B
#161600
1A
1B
#161760
0B
#161780
1B
#161800
0A
0B
#161840
1A
1B
#162000
0B
#162020
1B
#162040
0A
0B
#162080
1A
1B
#162240
0B
#162260
1B
#162280
0A
0B
#162340
1A
#162360
0A
#162400
1A
1B
#162420
0A
0B
#162440
1A
1B
#162600
0A
0B
#162620
1A
#162660
0A
#162760
1A
1B
#162920
0B
#162940
1B
#162960
0A
0B
#163000
1A
1B
#163160
0B
#163180
1B
#163200
0A
0B
#163260
1A
#163280
0A
#163320
1A
1B
#163340
0A
0B
#163360
1A
1B
#163540
0B
#163560
1B
#163720
0B
#163740
1B
#163760
0A
0B
#163840
1A
#163880
0A
#163960
1A
1B
#164120
0B
#164140
1B
#164160
0A
0B
#164200
1A
1B
#164360
0B
#164380
1B
#164400
0A
0B
#164460
1A
#164480
1B
#164500
0A
0B
#164520
1A
1B
#164680
0A
0B
#164700
1A
#164740
0A
#164800
1A
1B
#164960
0B
#164980
1B
#165000
0A
0B
#165240
1D
#165260
0D
#165280
1D
#174040
0D
#174060
1D
#174080
0D
#182560
1D
#182580
0D
#182600
1D
#191360
0D
#191380
1D
#191400
0D
#199920
1D
#208720
0D
#217240
1D
#217260
0D
#217280
1D
#226040
0D
#226060
1D
#226080
0D
#234560
1D
#234580
0D
#234600
1D
#239560
1A
1B
#239720
0B
#239740
1B
#239760
0A
0B
#239820
1A
#239840
1B
#239860
0A
0B
#239880
1A
1B
#240040
0A
0B
#240060
1A
#240080
0A
#240120
1A
1B
#240140
0A
0B
#240160
1A
1B
#240320
0A
0B
#240340
1A
#240380
0A
#240440
1A
1B
#240460
0A
0B
#240480
1A
1B
#240640
0A
0B
#240660
1A
#240700
0A
#240760
1A
1B
#240920
0B
#240940
1B
#240960
0A
0B
#241020
1A
#241040
1B
#241060
0A
0B
#241080
1A
1B
#241240
0A
0B
#241260
1A
#241300
0A
#241360
1A
1B
#241520
0B
#241540
1B
#241560
0A
0B
#241620
1A
#241640
0A
#241680
1A
1B
#241700
0A
0B
#241720
1A
1B
#241880
0A
0B
#241900
1A
#241940
0A
#242000
1A
1B
#242160
0B
#242180
1B
#242200
0A
0B
#242260
1A
#242280
0A
#242320
1A
1B
#242340
0A
0B
#242360
1A
1B
#242520
0A
0B
#242540
1A
#242560
1B
#242580
0A
0B
#242600
1A
1B
#242760
0A
0B
#242780
1A
#242800
1B
#242820
0A
0B
#242840
1A
1B
#243280
0B
#243300
1B
#243320
0A
0B
#243360
0D
#243380
1A
1D
#243400
1B
0D
#243420
0A
0B
#243440
1A
1B
#243600
0A
0B
#243620
1A
#243640
1B
#243660
0A
0B
#243680
1A
1B
#243840
0A
0B
#243860
1A
#243880
0A
#243920
1A
1B
#243940
0B
#243960
1B
#244120
0A
0B
#244140
1A
#244160
1B
#244180
0A
0B
#244200
1A
1B
#244360
0A
0B
#244380
1A
#244400
0A
#244440
1A
#244460
0A
#244520
1A
1B
#244680
0B
#244700
1B
#244720
0A
0B
#244780
1A
#244800
1B
#244820
0A
0B
#244840
1A
1B
#245000
0A
0B
#245020
1A
#245040
0A
#245080
1A
1B
#245240
0B
#245260
1B
#245280
0A
0B
#245320
1A
1B
#245480
0B
#245500
1B
#245720
0A
0B
#245740
1A
#245760
0A
#245800
1A
#245820
0A
#245840
1A
1B
#246000
0B
#246020
1B
#246040
0A
0B
#246100
1A
#246120
0A
1C
#246140
0C
#246160
1A
1B
1C
#246280
0C
#246300
1C
#246320
0C
#246520
0B
#246540
1B
#246760
0A
0B
#246780
1A
#246800
0A
#246840
1A
1B
#247000
0B
#247020
1B
#247040
0A
0B
#247080
1A
1B
#247240
0B
#247260
1B
#247280
0A
0B
#247320
1A
1B
1C
#247340
0A
0B
#247360
1A
1B
#247480
0A
0B
0C
#247500
1A
#247520
1B
#247540
0A
0B
#247560
1A
1B
#247720
0A
0B
#247740
1A
#247760
1B
#247780
0A
0B
#247800
1A
1B
#247980
0B
#248000
1B
#248160
0B
#248180
1B
#248200
0A
0B
#248280
1A
1B
#248440
0B
#248460
1B
#248480
0A
0B
#248520
1A
1B
#248680
0B
#248700
1B
#248720
0A
0B
#248760
1A
1B
#248920
0B
#248940
1B
#248960
0A
0B
#249020
1A
#249040
0A
#249080
1A
1B
#249100
0A
0B
#249120
1A
1B
#249280
0A
0B
#249300
1A
#249340
0A
#249440
1A
1B
#249600
0B
#249620
1B
#249640
0A
0B
#249680
1A
1B
#249840
0B
#249860
1B
#249880
0A
0B
#249940
1A
#249960
0A
#250000
1A
1B
#250020
0A
0B
#250040
1A
1B
#250220
0B
#250240
1B
#250400
0B
#250420
1B
#250440
0A
0B
#250520
1A
#250560
0A
#250640
1A
1B
#250960
0B
#250980
1B
#251000
0A
0B
#251040
1A
1B
#251200
0B
#251220
1B
#251240
0A
0B
#251300
1A
#251320
1B
#251340
0A
0B
#251360
1A
1B
#251520
0A
0B
#251540
1A
#251580
0A
#251640
1A
1B
#251800
0B
#251820
1B
#251840
0A
0B
#260560
1D
#260580
0D
#260600
1D
#269360
0D
#269380
1D
#269400
0D
#277920
1D
#286720
0D
#321240
1D
#326200
1A
1B
#326360
0B
#326380
1B
#326400
0A
0B
#326460
1A
#326480
1B
#326500
0A
0B
#326520
1A
1B
#326680
0A
0B
#326700
1A
#326720
0A
#326760
1A
1B
#326780
0A
0B
#326800
1A
1B
#326960
0A
0B
#326980
1A
#327020
0A
#327080
1A
1B
#327100
0A
0B
#327120
1A
1B
#327280
0A
0B
#327300
1A
#327340
0A
#327400
1A
1B
#327680
0A
0B
0D
#655360
1A
1B
1C
1D
